[{"Id":1,"fecha":"2017-08-16","importe":43.5,"latitud":5.329576,"longitud":103.1369108},
{"Id":2,"fecha":"2017-03-27","importe":25.36,"latitud":11.7447935,"longitud":12.1818557},
{"Id":3,"fecha":"2017-05-19","importe":89.23,"latitud":17.6416172,"longitud":-63.2282569},
{"Id":4,"fecha":"2017-05-27","importe":51.94,"latitud":33.226552,"longitud":115.600976},
{"Id":5,"fecha":"2017-02-07","importe":6.08,"latitud":24.805208,"longitud":88.9497046},
{"Id":6,"fecha":"2017-09-14","importe":14.56,"latitud":37.520481,"longitud":115.251124},
{"Id":7,"fecha":"2017-12-24","importe":80.71,"latitud":5.1650775,"longitud":96.3372305},
{"Id":8,"fecha":"2017-08-16","importe":71.91,"latitud":8.164085,"longitud":125.8131123},
{"Id":9,"fecha":"2017-09-30","importe":46.31,"latitud":-21.4433017,"longitud":27.4615118},
{"Id":10,"fecha":"2017-03-14","importe":23.86,"latitud":42.0993861,"longitud":27.9407145},
{"Id":11,"fecha":"2017-08-03","importe":93.7,"latitud":46.761348,"longitud":124.23692},
{"Id":12,"fecha":"2017-11-09","importe":51.24,"latitud":-6.5337152,"longitud":-76.4943827},
{"Id":13,"fecha":"2017-10-02","importe":79.98,"latitud":46.948612,"longitud":18.95016},
{"Id":14,"fecha":"2017-12-01","importe":49.87,"latitud":-32.1748082,"longitud":-64.1108167},
{"Id":15,"fecha":"2018-01-03","importe":8.84,"latitud":30.9578398,"longitud":107.8655766},
{"Id":16,"fecha":"2018-01-10","importe":58.09,"latitud":"36.13848","longitud":"36.61247"},
{"Id":17,"fecha":"2017-12-15","importe":47.39,"latitud":14.6116655,"longitud":-91.5105745},
{"Id":18,"fecha":"2017-08-18","importe":2.91,"latitud":64.7605411,"longitud":20.9709123},
{"Id":19,"fecha":"2017-01-26","importe":53.33,"latitud":-6.4698493,"longitud":107.5150139},
{"Id":20,"fecha":"2017-08-06","importe":90.47,"latitud":-22.817412,"longitud":47.818038},
{"Id":21,"fecha":"2017-12-09","importe":46.53,"latitud":37.2635727,"longitud":127.0286009},
{"Id":22,"fecha":"2018-01-08","importe":94.57,"latitud":51.6861013,"longitud":5.2933198},
{"Id":23,"fecha":"2017-05-22","importe":60.62,"latitud":48.6768262,"longitud":14.5775257},
{"Id":24,"fecha":"2017-04-06","importe":72.25,"latitud":-23.3233727,"longitud":-46.7294577},
{"Id":25,"fecha":"2017-03-01","importe":96.44,"latitud":34.2423088,"longitud":70.8744255},
{"Id":26,"fecha":"2017-03-27","importe":1.17,"latitud":32.610076,"longitud":101.529663},
{"Id":27,"fecha":"2017-06-17","importe":77.6,"latitud":24.348365,"longitud":105.759939},
{"Id":28,"fecha":"2017-03-21","importe":86.08,"latitud":50.1110411,"longitud":12.9988101},
{"Id":29,"fecha":"2017-11-14","importe":80.33,"latitud":"-7.24562","longitud":"177.14511"},
{"Id":30,"fecha":"2017-06-23","importe":28.85,"latitud":59.3595369,"longitud":17.9873583},
{"Id":31,"fecha":"2017-02-27","importe":89.76,"latitud":32.266892,"longitud":35.009675},
{"Id":32,"fecha":"2017-05-01","importe":99.79,"latitud":50.0099822,"longitud":17.0336959},
{"Id":33,"fecha":"2017-11-26","importe":66.0,"latitud":-18.3714305,"longitud":-54.6972774},
{"Id":34,"fecha":"2017-08-21","importe":33.37,"latitud":12.573631,"longitud":102.1041583},
{"Id":35,"fecha":"2017-01-29","importe":53.3,"latitud":52.3429156,"longitud":16.8799555},
{"Id":36,"fecha":"2017-08-08","importe":44.67,"latitud":49.9857805,"longitud":18.9477092},
{"Id":37,"fecha":"2017-03-26","importe":24.32,"latitud":32.6892815,"longitud":-16.7907398},
{"Id":38,"fecha":"2017-11-23","importe":78.59,"latitud":6.2958736,"longitud":101.7296049},
{"Id":39,"fecha":"2017-09-14","importe":44.13,"latitud":35.3750852,"longitud":24.2012676},
{"Id":40,"fecha":"2017-02-19","importe":55.67,"latitud":10.3242857,"longitud":7.6832998},
{"Id":41,"fecha":"2017-04-10","importe":3.67,"latitud":32.085094,"longitud":35.180832},
{"Id":42,"fecha":"2017-10-14","importe":20.23,"latitud":40.8207633,"longitud":24.2429692},
{"Id":43,"fecha":"2017-08-23","importe":5.02,"latitud":33.8305244,"longitud":-4.8353154},
{"Id":44,"fecha":"2017-03-03","importe":10.49,"latitud":30.63963,"longitud":114.385538},
{"Id":45,"fecha":"2017-10-02","importe":32.12,"latitud":23.378505,"longitud":113.832363},
{"Id":46,"fecha":"2017-01-26","importe":26.18,"latitud":45.4123755,"longitud":20.8041177},
{"Id":47,"fecha":"2017-05-29","importe":78.3,"latitud":39.77937,"longitud":76.630955},
{"Id":48,"fecha":"2017-09-19","importe":29.52,"latitud":-6.9140979,"longitud":112.4708685},
{"Id":49,"fecha":"2017-07-22","importe":85.38,"latitud":3.1166667,"longitud":172.8},
{"Id":50,"fecha":"2017-04-16","importe":78.19,"latitud":36.8022774,"longitud":-76.2768755},
{"Id":51,"fecha":"2017-03-02","importe":88.98,"latitud":52.0391192,"longitud":39.7408362},
{"Id":52,"fecha":"2017-10-12","importe":84.57,"latitud":40.4304536,"longitud":-3.7105118},
{"Id":53,"fecha":"2017-08-02","importe":47.88,"latitud":-6.9704332,"longitud":112.8463007},
{"Id":54,"fecha":"2017-07-24","importe":50.04,"latitud":34.7226934,"longitud":135.5286653},
{"Id":55,"fecha":"2017-03-29","importe":87.5,"latitud":57.6597922,"longitud":12.0140077},
{"Id":56,"fecha":"2017-06-06","importe":43.11,"latitud":59.7222934,"longitud":17.7824686},
{"Id":57,"fecha":"2017-03-26","importe":23.97,"latitud":"33.32836","longitud":"35.92144"},
{"Id":58,"fecha":"2017-06-22","importe":39.46,"latitud":"17.06034","longitud":"122.01514"},
{"Id":59,"fecha":"2017-01-12","importe":98.71,"latitud":41.8984166,"longitud":20.905252},
{"Id":60,"fecha":"2017-10-06","importe":12.4,"latitud":58.263232,"longitud":54.9326774},
{"Id":61,"fecha":"2017-05-05","importe":92.82,"latitud":-3.971033,"longitud":-41.6809724},
{"Id":62,"fecha":"2017-04-17","importe":46.97,"latitud":-11.9239743,"longitud":-76.6600415},
{"Id":63,"fecha":"2017-06-30","importe":94.31,"latitud":9.9256779,"longitud":13.9434035},
{"Id":64,"fecha":"2017-03-14","importe":20.17,"latitud":44.255137,"longitud":5.262028},
{"Id":65,"fecha":"2017-04-29","importe":57.07,"latitud":-6.719137,"longitud":108.4703138},
{"Id":66,"fecha":"2017-01-28","importe":6.28,"latitud":-9.7262368,"longitud":120.3608455},
{"Id":67,"fecha":"2017-04-12","importe":89.28,"latitud":"47.50722","longitud":"28.27694"},
{"Id":68,"fecha":"2017-04-18","importe":52.59,"latitud":44.7790716,"longitud":40.5449803},
{"Id":69,"fecha":"2017-04-19","importe":74.85,"latitud":26.682871,"longitud":100.109307},
{"Id":70,"fecha":"2017-12-25","importe":16.17,"latitud":32.425185,"longitud":114.387043},
{"Id":71,"fecha":"2017-02-26","importe":27.58,"latitud":-35.4232444,"longitud":-71.6484804},
{"Id":72,"fecha":"2017-12-13","importe":59.75,"latitud":49.3268319,"longitud":44.018505},
{"Id":73,"fecha":"2017-12-30","importe":97.78,"latitud":20.8236509,"longitud":-77.5791358},
{"Id":74,"fecha":"2017-12-20","importe":47.59,"latitud":-4.1393386,"longitud":39.3180297},
{"Id":75,"fecha":"2017-07-21","importe":99.7,"latitud":20.957938,"longitud":-76.9527836},
{"Id":76,"fecha":"2017-08-25","importe":74.44,"latitud":34.329567,"longitud":108.706272},
{"Id":77,"fecha":"2017-09-10","importe":72.28,"latitud":48.9969392,"longitud":31.4022422},
{"Id":78,"fecha":"2017-12-23","importe":51.89,"latitud":53.695696,"longitud":54.276083},
{"Id":79,"fecha":"2017-05-09","importe":65.48,"latitud":61.126827,"longitud":10.4388999},
{"Id":80,"fecha":"2017-08-04","importe":52.34,"latitud":59.8053589,"longitud":17.682881},
{"Id":81,"fecha":"2017-01-20","importe":28.53,"latitud":41.407302,"longitud":22.6642592},
{"Id":82,"fecha":"2017-07-01","importe":24.58,"latitud":-23.3549445,"longitud":-47.8451996},
{"Id":83,"fecha":"2017-10-23","importe":50.15,"latitud":37.261564,"longitud":111.769893},
{"Id":84,"fecha":"2017-04-05","importe":82.1,"latitud":-7.1480086,"longitud":107.8995629},
{"Id":85,"fecha":"2017-03-05","importe":73.92,"latitud":38.5619186,"longitud":25.5799503},
{"Id":86,"fecha":"2017-11-27","importe":14.93,"latitud":-6.3385652,"longitud":106.9447146},
{"Id":87,"fecha":"2017-10-10","importe":87.5,"latitud":18.3999996,"longitud":121.5166702},
{"Id":88,"fecha":"2017-01-16","importe":55.35,"latitud":45.4972764,"longitud":9.203123},
{"Id":89,"fecha":"2017-05-10","importe":78.02,"latitud":43.30706,"longitud":124.33539},
{"Id":90,"fecha":"2017-08-25","importe":45.03,"latitud":47.6508882,"longitud":-122.3084023},
{"Id":91,"fecha":"2017-10-15","importe":71.15,"latitud":-7.8533911,"longitud":111.2994071},
{"Id":92,"fecha":"2017-08-16","importe":39.33,"latitud":-8.557437,"longitud":114.0369075},
{"Id":93,"fecha":"2017-12-31","importe":76.78,"latitud":33.9850358,"longitud":51.4099625},
{"Id":94,"fecha":"2017-05-26","importe":44.69,"latitud":41.8535089,"longitud":12.5556193},
{"Id":95,"fecha":"2017-06-20","importe":23.93,"latitud":51.8759458,"longitud":16.0718133},
{"Id":96,"fecha":"2017-09-20","importe":70.71,"latitud":-10.8064536,"longitud":-37.1901616},
{"Id":97,"fecha":"2017-08-08","importe":48.32,"latitud":-22.5112638,"longitud":-43.1779137},
{"Id":98,"fecha":"2017-08-08","importe":6.55,"latitud":56.8965251,"longitud":14.8077914},
{"Id":99,"fecha":"2017-03-09","importe":54.83,"latitud":30.7378118,"longitud":112.2384017},
{"Id":100,"fecha":"2017-04-07","importe":95.8,"latitud":30.173912,"longitud":114.961327}]