[{"Id":1,"email":"liz.snchez@gmail.com","password":"1234","nombre":"Liz Sánchez M."},
{"Id":2,"email":"armando.solis@gmail.com","password":"5678","nombre":"Armando Solis"},
{"Id":3,"email":"alis.mn@gmail.com","password":"1098","nombre":"Alicia Medrano"},
{"Id":4,"email":"sonia.mart@gmail.com","password":"4567","nombre":"Sonia Martínez"}]
